%YAML 1.1
%TAG !u! tag:unity3d.com,2011:
--- !u!1 &1444809901064490
GameObject:
  m_ObjectHideFlags: 0
  m_CorrespondingSourceObject: {fileID: 0}
  m_PrefabInstance: {fileID: 0}
  m_PrefabAsset: {fileID: 0}
  serializedVersion: 6
  m_Component:
  - component: {fileID: 4397089938149152}
  m_Layer: 0
  m_Name: Building_O_PREFAB
  m_TagString: Untagged
  m_Icon: {fileID: 0}
  m_NavMeshLayer: 0
  m_StaticEditorFlags: 0
  m_IsActive: 1
--- !u!4 &4397089938149152
Transform:
  m_ObjectHideFlags: 0
  m_CorrespondingSourceObject: {fileID: 0}
  m_PrefabInstance: {fileID: 0}
  m_PrefabAsset: {fileID: 0}
  m_GameObject: {fileID: 1444809901064490}
  m_LocalRotation: {x: 0, y: 0, z: 0, w: 1}
  m_LocalPosition: {x: 0, y: 0, z: 0}
  m_LocalScale: {x: 1, y: 1, z: 1}
  m_Children:
  - {fileID: 4105636034932398}
  - {fileID: 7259776717420409042}
  m_Father: {fileID: 0}
  m_RootOrder: 0
  m_LocalEulerAnglesHint: {x: 0, y: 0, z: 0}
--- !u!1 &1590380894351202
GameObject:
  m_ObjectHideFlags: 0
  m_CorrespondingSourceObject: {fileID: 0}
  m_PrefabInstance: {fileID: 0}
  m_PrefabAsset: {fileID: 0}
  serializedVersion: 6
  m_Component:
  - component: {fileID: 4105636034932398}
  - component: {fileID: 33439464220492398}
  - component: {fileID: 23188706871179592}
  m_Layer: 0
  m_Name: Building_O
  m_TagString: Untagged
  m_Icon: {fileID: 0}
  m_NavMeshLayer: 0
  m_StaticEditorFlags: 0
  m_IsActive: 1
--- !u!4 &4105636034932398
Transform:
  m_ObjectHideFlags: 0
  m_CorrespondingSourceObject: {fileID: 0}
  m_PrefabInstance: {fileID: 0}
  m_PrefabAsset: {fileID: 0}
  m_GameObject: {fileID: 1590380894351202}
  m_LocalRotation: {x: -0.7071068, y: -0, z: -0, w: 0.7071067}
  m_LocalPosition: {x: 4.33, y: 0, z: 1.53}
  m_LocalScale: {x: 100, y: 99.99997, z: 99.99997}
  m_Children: []
  m_Father: {fileID: 4397089938149152}
  m_RootOrder: 0
  m_LocalEulerAnglesHint: {x: 0, y: 0, z: 0}
--- !u!33 &33439464220492398
MeshFilter:
  m_ObjectHideFlags: 0
  m_CorrespondingSourceObject: {fileID: 0}
  m_PrefabInstance: {fileID: 0}
  m_PrefabAsset: {fileID: 0}
  m_GameObject: {fileID: 1590380894351202}
  m_Mesh: {fileID: 4300000, guid: ca246c97a259738478f76dc4bd734bea, type: 3}
--- !u!23 &23188706871179592
MeshRenderer:
  m_ObjectHideFlags: 0
  m_CorrespondingSourceObject: {fileID: 0}
  m_PrefabInstance: {fileID: 0}
  m_PrefabAsset: {fileID: 0}
  m_GameObject: {fileID: 1590380894351202}
  m_Enabled: 1
  m_CastShadows: 1
  m_ReceiveShadows: 1
  m_DynamicOccludee: 1
  m_MotionVectors: 1
  m_LightProbeUsage: 1
  m_ReflectionProbeUsage: 1
  m_RayTracingMode: 2
  m_RayTraceProcedural: 0
  m_RenderingLayerMask: 1
  m_RendererPriority: 0
  m_Materials:
  - {fileID: 2100000, guid: 2100b85841ac32940a50ec36409b49c0, type: 2}
  - {fileID: 2100000, guid: 5188c7492ef51d143a7128aa9700788a, type: 2}
  - {fileID: 2100000, guid: 8bf8e8eb3c4ec9c4e9f79488c39bff59, type: 2}
  - {fileID: 2100000, guid: 26df91506bf83b343b8083c5322323ae, type: 2}
  - {fileID: 2100000, guid: 26df91506bf83b343b8083c5322323ae, type: 2}
  - {fileID: 2100000, guid: b1aa805cd8c03914ea529c0d11595111, type: 2}
  - {fileID: 2100000, guid: fe6ba248f97095d49869fcb5611b50d4, type: 2}
  - {fileID: 2100000, guid: c4d3a0c81c5ffb34889379e1a1cf85bb, type: 2}
  - {fileID: 2100000, guid: 3c98c150d6196ef419f666d71cf7d13f, type: 2}
  - {fileID: 2100000, guid: 3c98c150d6196ef419f666d71cf7d13f, type: 2}
  - {fileID: 2100000, guid: 5188c7492ef51d143a7128aa9700788a, type: 2}
  - {fileID: 2100000, guid: fe6ba248f97095d49869fcb5611b50d4, type: 2}
  - {fileID: 2100000, guid: 8bf8e8eb3c4ec9c4e9f79488c39bff59, type: 2}
  - {fileID: 2100000, guid: 9904cd0f6245e884999431c0bdf22fef, type: 2}
  m_StaticBatchInfo:
    firstSubMesh: 0
    subMeshCount: 0
  m_StaticBatchRoot: {fileID: 0}
  m_ProbeAnchor: {fileID: 0}
  m_LightProbeVolumeOverride: {fileID: 0}
  m_ScaleInLightmap: 1
  m_ReceiveGI: 1
  m_PreserveUVs: 0
  m_IgnoreNormalsForChartDetection: 0
  m_ImportantGI: 0
  m_StitchLightmapSeams: 0
  m_SelectedEditorRenderState: 3
  m_MinimumChartSize: 4
  m_AutoUVMaxDistance: 0.5
  m_AutoUVMaxAngle: 89
  m_LightmapParameters: {fileID: 0}
  m_SortingLayerID: 0
  m_SortingLayer: 0
  m_SortingOrder: 0
  m_AdditionalVertexStreams: {fileID: 0}
--- !u!1001 &7148709080885090105
PrefabInstance:
  m_ObjectHideFlags: 0
  serializedVersion: 2
  m_Modification:
    m_TransformParent: {fileID: 4397089938149152}
    m_Modifications:
    - target: {fileID: -8679921383154817045, guid: cdf4cf4603b86654f845326f54a0562a, type: 3}
      propertyPath: m_RootOrder
      value: 1
      objectReference: {fileID: 0}
    - target: {fileID: -8679921383154817045, guid: cdf4cf4603b86654f845326f54a0562a, type: 3}
      propertyPath: m_LocalPosition.x
      value: 3.341
      objectReference: {fileID: 0}
    - target: {fileID: -8679921383154817045, guid: cdf4cf4603b86654f845326f54a0562a, type: 3}
      propertyPath: m_LocalPosition.y
      value: 1.1632075
      objectReference: {fileID: 0}
    - target: {fileID: -8679921383154817045, guid: cdf4cf4603b86654f845326f54a0562a, type: 3}
      propertyPath: m_LocalPosition.z
      value: -2.0336947
      objectReference: {fileID: 0}
    - target: {fileID: -8679921383154817045, guid: cdf4cf4603b86654f845326f54a0562a, type: 3}
      propertyPath: m_LocalRotation.w
      value: 0.50012165
      objectReference: {fileID: 0}
    - target: {fileID: -8679921383154817045, guid: cdf4cf4603b86654f845326f54a0562a, type: 3}
      propertyPath: m_LocalRotation.x
      value: 0.5001189
      objectReference: {fileID: 0}
    - target: {fileID: -8679921383154817045, guid: cdf4cf4603b86654f845326f54a0562a, type: 3}
      propertyPath: m_LocalRotation.y
      value: 0.49988118
      objectReference: {fileID: 0}
    - target: {fileID: -8679921383154817045, guid: cdf4cf4603b86654f845326f54a0562a, type: 3}
      propertyPath: m_LocalRotation.z
      value: 0.49987823
      objectReference: {fileID: 0}
    - target: {fileID: -8679921383154817045, guid: cdf4cf4603b86654f845326f54a0562a, type: 3}
      propertyPath: m_LocalEulerAnglesHint.x
      value: 0.028
      objectReference: {fileID: 0}
    - target: {fileID: -8679921383154817045, guid: cdf4cf4603b86654f845326f54a0562a, type: 3}
      propertyPath: m_LocalEulerAnglesHint.y
      value: 90
      objectReference: {fileID: 0}
    - target: {fileID: -8679921383154817045, guid: cdf4cf4603b86654f845326f54a0562a, type: 3}
      propertyPath: m_LocalEulerAnglesHint.z
      value: 90
      objectReference: {fileID: 0}
    - target: {fileID: -7511558181221131132, guid: cdf4cf4603b86654f845326f54a0562a, type: 3}
      propertyPath: m_Materials.Array.data[0]
      value: 
      objectReference: {fileID: 2100000, guid: 7314353addec573408094319e8e9dc05, type: 2}
    - target: {fileID: 919132149155446097, guid: cdf4cf4603b86654f845326f54a0562a, type: 3}
      propertyPath: m_Name
      value: y_board
      objectReference: {fileID: 0}
    m_RemovedComponents: []
  m_SourcePrefab: {fileID: 100100000, guid: cdf4cf4603b86654f845326f54a0562a, type: 3}
--- !u!4 &7259776717420409042 stripped
Transform:
  m_CorrespondingSourceObject: {fileID: -8679921383154817045, guid: cdf4cf4603b86654f845326f54a0562a, type: 3}
  m_PrefabInstance: {fileID: 7148709080885090105}
  m_PrefabAsset: {fileID: 0}
