%YAML 1.1
%TAG !u! tag:unity3d.com,2011:
--- !u!319 &31900000
AvatarMask:
  m_ObjectHideFlags: 0
  m_CorrespondingSourceObject: {fileID: 0}
  m_PrefabInstance: {fileID: 0}
  m_PrefabAsset: {fileID: 0}
  m_Name: Hands
  m_Mask: 00000000000000000000000000000000000000000100000001000000010000000100000000000000000000000100000001000000
  m_Elements:
  - m_Path: 
    m_Weight: 1
  - m_Path: Exo_HiRes_Meshes
    m_Weight: 1
  - m_Path: Exo_HiRes_Meshes/EXO_Body
    m_Weight: 1
  - m_Path: Exo_HiRes_Meshes/EXO_BrowsLashes
    m_Weight: 1
  - m_Path: Exo_HiRes_Meshes/EXO_Caruncula
    m_Weight: 1
  - m_Path: Exo_HiRes_Meshes/EXO_Eyes
    m_Weight: 1
  - m_Path: Exo_HiRes_Meshes/EXO_EyesSpec
    m_Weight: 1
  - m_Path: Exo_HiRes_Meshes/EXO_HeadMask
    m_Weight: 1
  - m_Path: Exo_HiRes_Meshes/Exo_Suit
    m_Weight: 1
  - m_Path: Exo_HiRes_Meshes/EXO_Teeth
    m_Weight: 1
  - m_Path: Hips
    m_Weight: 1
  - m_Path: Hips/LeftUpLeg
    m_Weight: 1
  - m_Path: Hips/LeftUpLeg/LeftLeg
    m_Weight: 1
  - m_Path: Hips/LeftUpLeg/LeftLeg/LeftFoot
    m_Weight: 1
  - m_Path: Hips/LeftUpLeg/LeftLeg/LeftFoot/LeftToeBase
    m_Weight: 1
  - m_Path: Hips/LeftUpLeg/LeftLeg/LeftFoot/LeftToeBase/LeftFootToeBase_End
    m_Weight: 1
  - m_Path: Hips/RightUpLeg
    m_Weight: 1
  - m_Path: Hips/RightUpLeg/RightLeg
    m_Weight: 1
  - m_Path: Hips/RightUpLeg/RightLeg/RightFoot
    m_Weight: 1
  - m_Path: Hips/RightUpLeg/RightLeg/RightFoot/RightToeBase
    m_Weight: 1
  - m_Path: Hips/RightUpLeg/RightLeg/RightFoot/RightToeBase/RightFootToeBase_End
    m_Weight: 1
  - m_Path: Hips/Spine
    m_Weight: 1
  - m_Path: Hips/Spine/Spine1
    m_Weight: 1
  - m_Path: Hips/Spine/Spine1/Spine2
    m_Weight: 1
  - m_Path: Hips/Spine/Spine1/Spine2/LeftShoulder
    m_Weight: 1
  - m_Path: Hips/Spine/Spine1/Spine2/LeftShoulder/LeftArm
    m_Weight: 1
  - m_Path: Hips/Spine/Spine1/Spine2/LeftShoulder/LeftArm/LeftForeArm
    m_Weight: 1
  - m_Path: Hips/Spine/Spine1/Spine2/LeftShoulder/LeftArm/LeftForeArm/LeftHand
    m_Weight: 1
  - m_Path: Hips/Spine/Spine1/Spine2/LeftShoulder/LeftArm/LeftForeArm/LeftHand/LeftHandIndex1
    m_Weight: 1
  - m_Path: Hips/Spine/Spine1/Spine2/LeftShoulder/LeftArm/LeftForeArm/LeftHand/LeftHandIndex1/LeftHandIndex2
    m_Weight: 1
  - m_Path: Hips/Spine/Spine1/Spine2/LeftShoulder/LeftArm/LeftForeArm/LeftHand/LeftHandIndex1/LeftHandIndex2/LeftHandIndex3
    m_Weight: 1
  - m_Path: Hips/Spine/Spine1/Spine2/LeftShoulder/LeftArm/LeftForeArm/LeftHand/LeftHandIndex1/LeftHandIndex2/LeftHandIndex3/LeftHandIndex4
    m_Weight: 1
  - m_Path: Hips/Spine/Spine1/Spine2/LeftShoulder/LeftArm/LeftForeArm/LeftHand/LeftHandMiddle1
    m_Weight: 1
  - m_Path: Hips/Spine/Spine1/Spine2/LeftShoulder/LeftArm/LeftForeArm/LeftHand/LeftHandMiddle1/LeftHandMiddle2
    m_Weight: 1
  - m_Path: Hips/Spine/Spine1/Spine2/LeftShoulder/LeftArm/LeftForeArm/LeftHand/LeftHandMiddle1/LeftHandMiddle2/LeftHandMiddle3
    m_Weight: 1
  - m_Path: Hips/Spine/Spine1/Spine2/LeftShoulder/LeftArm/LeftForeArm/LeftHand/LeftHandMiddle1/LeftHandMiddle2/LeftHandMiddle3/LeftHandMiddle4
    m_Weight: 1
  - m_Path: Hips/Spine/Spine1/Spine2/LeftShoulder/LeftArm/LeftForeArm/LeftHand/LeftHandPinky1
    m_Weight: 1
  - m_Path: Hips/Spine/Spine1/Spine2/LeftShoulder/LeftArm/LeftForeArm/LeftHand/LeftHandPinky1/LeftHandPinky2
    m_Weight: 1
  - m_Path: Hips/Spine/Spine1/Spine2/LeftShoulder/LeftArm/LeftForeArm/LeftHand/LeftHandPinky1/LeftHandPinky2/LeftHandPinky3
    m_Weight: 1
  - m_Path: Hips/Spine/Spine1/Spine2/LeftShoulder/LeftArm/LeftForeArm/LeftHand/LeftHandPinky1/LeftHandPinky2/LeftHandPinky3/LeftHandPinky4
    m_Weight: 1
  - m_Path: Hips/Spine/Spine1/Spine2/LeftShoulder/LeftArm/LeftForeArm/LeftHand/LeftHandRing1
    m_Weight: 1
  - m_Path: Hips/Spine/Spine1/Spine2/LeftShoulder/LeftArm/LeftForeArm/LeftHand/LeftHandRing1/LeftHandRing2
    m_Weight: 1
  - m_Path: Hips/Spine/Spine1/Spine2/LeftShoulder/LeftArm/LeftForeArm/LeftHand/LeftHandRing1/LeftHandRing2/LeftHandRing3
    m_Weight: 1
  - m_Path: Hips/Spine/Spine1/Spine2/LeftShoulder/LeftArm/LeftForeArm/LeftHand/LeftHandRing1/LeftHandRing2/LeftHandRing3/LeftHandRing4
    m_Weight: 1
  - m_Path: Hips/Spine/Spine1/Spine2/LeftShoulder/LeftArm/LeftForeArm/LeftHand/LeftHandThumb1
    m_Weight: 1
  - m_Path: Hips/Spine/Spine1/Spine2/LeftShoulder/LeftArm/LeftForeArm/LeftHand/LeftHandThumb1/LeftHandThumb2
    m_Weight: 1
  - m_Path: Hips/Spine/Spine1/Spine2/LeftShoulder/LeftArm/LeftForeArm/LeftHand/LeftHandThumb1/LeftHandThumb2/LeftHandThumb3
    m_Weight: 1
  - m_Path: Hips/Spine/Spine1/Spine2/LeftShoulder/LeftArm/LeftForeArm/LeftHand/LeftHandThumb1/LeftHandThumb2/LeftHandThumb3/LeftHandThumb4
    m_Weight: 1
  - m_Path: Hips/Spine/Spine1/Spine2/Neck
    m_Weight: 1
  - m_Path: Hips/Spine/Spine1/Spine2/Neck/Neck1
    m_Weight: 1
  - m_Path: Hips/Spine/Spine1/Spine2/Neck/Neck1/Head
    m_Weight: 1
  - m_Path: Hips/Spine/Spine1/Spine2/Neck/Neck1/Head/HeadTop_End
    m_Weight: 1
  - m_Path: Hips/Spine/Spine1/Spine2/Neck/Neck1/Head/Jaw
    m_Weight: 1
  - m_Path: Hips/Spine/Spine1/Spine2/Neck/Neck1/Head/Jaw/Chin
    m_Weight: 1
  - m_Path: Hips/Spine/Spine1/Spine2/Neck/Neck1/Head/Jaw/LowerChin
    m_Weight: 1
  - m_Path: Hips/Spine/Spine1/Spine2/Neck/Neck1/Head/Jaw/TongueBack
    m_Weight: 1
  - m_Path: Hips/Spine/Spine1/Spine2/Neck/Neck1/Head/Jaw/TongueBack/TongueMid
    m_Weight: 1
  - m_Path: Hips/Spine/Spine1/Spine2/Neck/Neck1/Head/Jaw/TongueBack/TongueMid/TongueTip
    m_Weight: 1
  - m_Path: Hips/Spine/Spine1/Spine2/Neck/Neck1/Head/L_CheekFold
    m_Weight: 1
  - m_Path: Hips/Spine/Spine1/Spine2/Neck/Neck1/Head/L_Ear
    m_Weight: 1
  - m_Path: Hips/Spine/Spine1/Spine2/Neck/Neck1/Head/L_Eye
    m_Weight: 1
  - m_Path: Hips/Spine/Spine1/Spine2/Neck/Neck1/Head/L_EyelidLower
    m_Weight: 1
  - m_Path: Hips/Spine/Spine1/Spine2/Neck/Neck1/Head/L_EyelidUpper
    m_Weight: 1
  - m_Path: Hips/Spine/Spine1/Spine2/Neck/Neck1/Head/L_InnerBrow
    m_Weight: 1
  - m_Path: Hips/Spine/Spine1/Spine2/Neck/Neck1/Head/L_InnerCheek
    m_Weight: 1
  - m_Path: Hips/Spine/Spine1/Spine2/Neck/Neck1/Head/L_IOuterBrow
    m_Weight: 1
  - m_Path: Hips/Spine/Spine1/Spine2/Neck/Neck1/Head/L_LipCorner
    m_Weight: 1
  - m_Path: Hips/Spine/Spine1/Spine2/Neck/Neck1/Head/L_LipCorner/L_LipCornerLowTweak
    m_Weight: 1
  - m_Path: Hips/Spine/Spine1/Spine2/Neck/Neck1/Head/L_LipCorner/L_LipCornerUpTweak
    m_Weight: 1
  - m_Path: Hips/Spine/Spine1/Spine2/Neck/Neck1/Head/L_LipLower
    m_Weight: 1
  - m_Path: Hips/Spine/Spine1/Spine2/Neck/Neck1/Head/L_LipUpper
    m_Weight: 1
  - m_Path: Hips/Spine/Spine1/Spine2/Neck/Neck1/Head/L_LowerCheek
    m_Weight: 1
  - m_Path: Hips/Spine/Spine1/Spine2/Neck/Neck1/Head/L_MidBrow
    m_Weight: 1
  - m_Path: Hips/Spine/Spine1/Spine2/Neck/Neck1/Head/L_Nostril
    m_Weight: 1
  - m_Path: Hips/Spine/Spine1/Spine2/Neck/Neck1/Head/L_OuterCheek
    m_Weight: 1
  - m_Path: Hips/Spine/Spine1/Spine2/Neck/Neck1/Head/L_Temple
    m_Weight: 1
  - m_Path: Hips/Spine/Spine1/Spine2/Neck/Neck1/Head/LipMidLower
    m_Weight: 1
  - m_Path: Hips/Spine/Spine1/Spine2/Neck/Neck1/Head/LipMidUpper
    m_Weight: 1
  - m_Path: Hips/Spine/Spine1/Spine2/Neck/Neck1/Head/MidBrows
    m_Weight: 1
  - m_Path: Hips/Spine/Spine1/Spine2/Neck/Neck1/Head/R_CheekFold
    m_Weight: 1
  - m_Path: Hips/Spine/Spine1/Spine2/Neck/Neck1/Head/R_Ear
    m_Weight: 1
  - m_Path: Hips/Spine/Spine1/Spine2/Neck/Neck1/Head/R_Eye
    m_Weight: 1
  - m_Path: Hips/Spine/Spine1/Spine2/Neck/Neck1/Head/R_EyelidLower
    m_Weight: 1
  - m_Path: Hips/Spine/Spine1/Spine2/Neck/Neck1/Head/R_EyelidUpper
    m_Weight: 1
  - m_Path: Hips/Spine/Spine1/Spine2/Neck/Neck1/Head/R_gLipCorner
    m_Weight: 1
  - m_Path: Hips/Spine/Spine1/Spine2/Neck/Neck1/Head/R_gLipCorner/R_gLipCornerLowTweak
    m_Weight: 1
  - m_Path: Hips/Spine/Spine1/Spine2/Neck/Neck1/Head/R_gLipCorner/R_gLipCornerUpTweak
    m_Weight: 1
  - m_Path: Hips/Spine/Spine1/Spine2/Neck/Neck1/Head/R_InnerBrow
    m_Weight: 1
  - m_Path: Hips/Spine/Spine1/Spine2/Neck/Neck1/Head/R_InnerCheek
    m_Weight: 1
  - m_Path: Hips/Spine/Spine1/Spine2/Neck/Neck1/Head/R_IOuterBrow
    m_Weight: 1
  - m_Path: Hips/Spine/Spine1/Spine2/Neck/Neck1/Head/R_LipLower
    m_Weight: 1
  - m_Path: Hips/Spine/Spine1/Spine2/Neck/Neck1/Head/R_LipUpper
    m_Weight: 1
  - m_Path: Hips/Spine/Spine1/Spine2/Neck/Neck1/Head/R_LowerCheek
    m_Weight: 1
  - m_Path: Hips/Spine/Spine1/Spine2/Neck/Neck1/Head/R_MidBrow
    m_Weight: 1
  - m_Path: Hips/Spine/Spine1/Spine2/Neck/Neck1/Head/R_OuterCheek
    m_Weight: 1
  - m_Path: Hips/Spine/Spine1/Spine2/Neck/Neck1/Head/R_Temple
    m_Weight: 1
  - m_Path: Hips/Spine/Spine1/Spine2/Neck/Neck1/Head/RightNostril
    m_Weight: 1
  - m_Path: Hips/Spine/Spine1/Spine2/Neck/Neck1/Head/Scalp
    m_Weight: 1
  - m_Path: Hips/Spine/Spine1/Spine2/Neck/Neck1/Throat
    m_Weight: 1
  - m_Path: Hips/Spine/Spine1/Spine2/RightShoulder
    m_Weight: 1
  - m_Path: Hips/Spine/Spine1/Spine2/RightShoulder/RightArm
    m_Weight: 1
  - m_Path: Hips/Spine/Spine1/Spine2/RightShoulder/RightArm/RightForeArm
    m_Weight: 1
  - m_Path: Hips/Spine/Spine1/Spine2/RightShoulder/RightArm/RightForeArm/RightHand
    m_Weight: 1
  - m_Path: Hips/Spine/Spine1/Spine2/RightShoulder/RightArm/RightForeArm/RightHand/RightHandIndex1
    m_Weight: 1
  - m_Path: Hips/Spine/Spine1/Spine2/RightShoulder/RightArm/RightForeArm/RightHand/RightHandIndex1/RightHandIndex2
    m_Weight: 1
  - m_Path: Hips/Spine/Spine1/Spine2/RightShoulder/RightArm/RightForeArm/RightHand/RightHandIndex1/RightHandIndex2/RightHandIndex3
    m_Weight: 1
  - m_Path: Hips/Spine/Spine1/Spine2/RightShoulder/RightArm/RightForeArm/RightHand/RightHandIndex1/RightHandIndex2/RightHandIndex3/RightHandIndex4
    m_Weight: 1
  - m_Path: Hips/Spine/Spine1/Spine2/RightShoulder/RightArm/RightForeArm/RightHand/RightHandMiddle1
    m_Weight: 1
  - m_Path: Hips/Spine/Spine1/Spine2/RightShoulder/RightArm/RightForeArm/RightHand/RightHandMiddle1/RightHandMiddle2
    m_Weight: 1
  - m_Path: Hips/Spine/Spine1/Spine2/RightShoulder/RightArm/RightForeArm/RightHand/RightHandMiddle1/RightHandMiddle2/RightHandMiddle3
    m_Weight: 1
  - m_Path: Hips/Spine/Spine1/Spine2/RightShoulder/RightArm/RightForeArm/RightHand/RightHandMiddle1/RightHandMiddle2/RightHandMiddle3/RightHandMiddle4
    m_Weight: 1
  - m_Path: Hips/Spine/Spine1/Spine2/RightShoulder/RightArm/RightForeArm/RightHand/RightHandPinky1
    m_Weight: 1
  - m_Path: Hips/Spine/Spine1/Spine2/RightShoulder/RightArm/RightForeArm/RightHand/RightHandPinky1/RightHandPinky2
    m_Weight: 1
  - m_Path: Hips/Spine/Spine1/Spine2/RightShoulder/RightArm/RightForeArm/RightHand/RightHandPinky1/RightHandPinky2/RightHandPinky3
    m_Weight: 1
  - m_Path: Hips/Spine/Spine1/Spine2/RightShoulder/RightArm/RightForeArm/RightHand/RightHandPinky1/RightHandPinky2/RightHandPinky3/RightHandPinky4
    m_Weight: 1
  - m_Path: Hips/Spine/Spine1/Spine2/RightShoulder/RightArm/RightForeArm/RightHand/RightHandRing1
    m_Weight: 1
  - m_Path: Hips/Spine/Spine1/Spine2/RightShoulder/RightArm/RightForeArm/RightHand/RightHandRing1/RightHandRing2
    m_Weight: 1
  - m_Path: Hips/Spine/Spine1/Spine2/RightShoulder/RightArm/RightForeArm/RightHand/RightHandRing1/RightHandRing2/RightHandRing3
    m_Weight: 1
  - m_Path: Hips/Spine/Spine1/Spine2/RightShoulder/RightArm/RightForeArm/RightHand/RightHandRing1/RightHandRing2/RightHandRing3/RightHandRing4
    m_Weight: 1
  - m_Path: Hips/Spine/Spine1/Spine2/RightShoulder/RightArm/RightForeArm/RightHand/RightHandThumb1
    m_Weight: 1
  - m_Path: Hips/Spine/Spine1/Spine2/RightShoulder/RightArm/RightForeArm/RightHand/RightHandThumb1/RightHandThumb2
    m_Weight: 1
  - m_Path: Hips/Spine/Spine1/Spine2/RightShoulder/RightArm/RightForeArm/RightHand/RightHandThumb1/RightHandThumb2/RightHandThumb3
    m_Weight: 1
  - m_Path: Hips/Spine/Spine1/Spine2/RightShoulder/RightArm/RightForeArm/RightHand/RightHandThumb1/RightHandThumb2/RightHandThumb3/RightHandThumb4
    m_Weight: 1
