%YAML 1.1
%TAG !u! tag:unity3d.com,2011:
--- !u!1 &8374408628245397547
GameObject:
  m_ObjectHideFlags: 0
  m_CorrespondingSourceObject: {fileID: 0}
  m_PrefabInstance: {fileID: 0}
  m_PrefabAsset: {fileID: 0}
  serializedVersion: 6
  m_Component:
  - component: {fileID: 8374408628245397544}
  - component: {fileID: -2679157790478756488}
  m_Layer: 8
  m_Name: BrickWallObstacle
  m_TagString: Untagged
  m_Icon: {fileID: 0}
  m_NavMeshLayer: 0
  m_StaticEditorFlags: 0
  m_IsActive: 1
--- !u!4 &8374408628245397544
Transform:
  m_ObjectHideFlags: 0
  m_CorrespondingSourceObject: {fileID: 0}
  m_PrefabInstance: {fileID: 0}
  m_PrefabAsset: {fileID: 0}
  m_GameObject: {fileID: 8374408628245397547}
  m_LocalRotation: {x: -0, y: -0, z: -0, w: 1}
  m_LocalPosition: {x: 2.5609107, y: -0.5999999, z: -5.008774}
  m_LocalScale: {x: 1, y: 1, z: 1}
  m_Children:
  - {fileID: 8339920190983396730}
  - {fileID: 8374408629106988389}
  m_Father: {fileID: 0}
  m_RootOrder: 0
  m_LocalEulerAnglesHint: {x: 0, y: 0, z: 0}
--- !u!114 &-2679157790478756488
MonoBehaviour:
  m_ObjectHideFlags: 0
  m_CorrespondingSourceObject: {fileID: 0}
  m_PrefabInstance: {fileID: 0}
  m_PrefabAsset: {fileID: 0}
  m_GameObject: {fileID: 8374408628245397547}
  m_Enabled: 1
  m_EditorHideFlags: 0
  m_Script: {fileID: 11500000, guid: 963c7842b177db843a0e6e9e0992bb52, type: 3}
  m_Name: 
  m_EditorClassIdentifier: 
--- !u!1 &8374408629106988390
GameObject:
  m_ObjectHideFlags: 0
  m_CorrespondingSourceObject: {fileID: 0}
  m_PrefabInstance: {fileID: 0}
  m_PrefabAsset: {fileID: 0}
  serializedVersion: 6
  m_Component:
  - component: {fileID: 8374408629106988389}
  - component: {fileID: 8374408629106988386}
  - component: {fileID: 8374408629106988387}
  - component: {fileID: 8374408629106988388}
  m_Layer: 0
  m_Name: Collider
  m_TagString: Untagged
  m_Icon: {fileID: 0}
  m_NavMeshLayer: 0
  m_StaticEditorFlags: 0
  m_IsActive: 1
--- !u!4 &8374408629106988389
Transform:
  m_ObjectHideFlags: 0
  m_CorrespondingSourceObject: {fileID: 0}
  m_PrefabInstance: {fileID: 0}
  m_PrefabAsset: {fileID: 0}
  m_GameObject: {fileID: 8374408629106988390}
  m_LocalRotation: {x: 0, y: 0, z: 0, w: 1}
  m_LocalPosition: {x: -0.0446, y: 1.9345, z: -0.0909}
  m_LocalScale: {x: 5.0329223, y: 2.876494, z: 0.250568}
  m_Children: []
  m_Father: {fileID: 8374408628245397544}
  m_RootOrder: 1
  m_LocalEulerAnglesHint: {x: 0, y: 0, z: 0}
--- !u!33 &8374408629106988386
MeshFilter:
  m_ObjectHideFlags: 0
  m_CorrespondingSourceObject: {fileID: 0}
  m_PrefabInstance: {fileID: 0}
  m_PrefabAsset: {fileID: 0}
  m_GameObject: {fileID: 8374408629106988390}
  m_Mesh: {fileID: 10202, guid: 0000000000000000e000000000000000, type: 0}
--- !u!23 &8374408629106988387
MeshRenderer:
  m_ObjectHideFlags: 0
  m_CorrespondingSourceObject: {fileID: 0}
  m_PrefabInstance: {fileID: 0}
  m_PrefabAsset: {fileID: 0}
  m_GameObject: {fileID: 8374408629106988390}
  m_Enabled: 0
  m_CastShadows: 1
  m_ReceiveShadows: 1
  m_DynamicOccludee: 1
  m_MotionVectors: 1
  m_LightProbeUsage: 1
  m_ReflectionProbeUsage: 1
  m_RayTracingMode: 2
  m_RayTraceProcedural: 0
  m_RenderingLayerMask: 1
  m_RendererPriority: 0
  m_Materials:
  - {fileID: 2100000, guid: 31321ba15b8f8eb4c954353edc038b1d, type: 2}
  m_StaticBatchInfo:
    firstSubMesh: 0
    subMeshCount: 0
  m_StaticBatchRoot: {fileID: 0}
  m_ProbeAnchor: {fileID: 0}
  m_LightProbeVolumeOverride: {fileID: 0}
  m_ScaleInLightmap: 1
  m_ReceiveGI: 1
  m_PreserveUVs: 0
  m_IgnoreNormalsForChartDetection: 0
  m_ImportantGI: 0
  m_StitchLightmapSeams: 1
  m_SelectedEditorRenderState: 3
  m_MinimumChartSize: 4
  m_AutoUVMaxDistance: 0.5
  m_AutoUVMaxAngle: 89
  m_LightmapParameters: {fileID: 0}
  m_SortingLayerID: 0
  m_SortingLayer: 0
  m_SortingOrder: 0
  m_AdditionalVertexStreams: {fileID: 0}
--- !u!65 &8374408629106988388
BoxCollider:
  m_ObjectHideFlags: 0
  m_CorrespondingSourceObject: {fileID: 0}
  m_PrefabInstance: {fileID: 0}
  m_PrefabAsset: {fileID: 0}
  m_GameObject: {fileID: 8374408629106988390}
  m_Material: {fileID: 0}
  m_IsTrigger: 0
  m_Enabled: 1
  serializedVersion: 2
  m_Size: {x: 1, y: 1, z: 1}
  m_Center: {x: 0, y: 0, z: 0}
--- !u!1001 &8374408629411986065
PrefabInstance:
  m_ObjectHideFlags: 0
  serializedVersion: 2
  m_Modification:
    m_TransformParent: {fileID: 8374408628245397544}
    m_Modifications:
    - target: {fileID: -9033062461727425094, guid: cb4f9e09de5234c788a68327a234ef9a, type: 3}
      propertyPath: m_LocalEulerAnglesHint.x
      value: -0
      objectReference: {fileID: 0}
    - target: {fileID: -9033062461727425094, guid: cb4f9e09de5234c788a68327a234ef9a, type: 3}
      propertyPath: m_LocalEulerAnglesHint.y
      value: 0
      objectReference: {fileID: 0}
    - target: {fileID: -9033062461727425094, guid: cb4f9e09de5234c788a68327a234ef9a, type: 3}
      propertyPath: m_LocalEulerAnglesHint.z
      value: 0
      objectReference: {fileID: 0}
    - target: {fileID: -8708843807601750686, guid: cb4f9e09de5234c788a68327a234ef9a, type: 3}
      propertyPath: m_LocalEulerAnglesHint.x
      value: 0
      objectReference: {fileID: 0}
    - target: {fileID: -8708843807601750686, guid: cb4f9e09de5234c788a68327a234ef9a, type: 3}
      propertyPath: m_LocalEulerAnglesHint.y
      value: 0
      objectReference: {fileID: 0}
    - target: {fileID: -8708843807601750686, guid: cb4f9e09de5234c788a68327a234ef9a, type: 3}
      propertyPath: m_LocalEulerAnglesHint.z
      value: 0
      objectReference: {fileID: 0}
    - target: {fileID: -8679921383154817045, guid: cb4f9e09de5234c788a68327a234ef9a, type: 3}
      propertyPath: m_RootOrder
      value: 0
      objectReference: {fileID: 0}
    - target: {fileID: -8679921383154817045, guid: cb4f9e09de5234c788a68327a234ef9a, type: 3}
      propertyPath: m_LocalPosition.x
      value: 0
      objectReference: {fileID: 0}
    - target: {fileID: -8679921383154817045, guid: cb4f9e09de5234c788a68327a234ef9a, type: 3}
      propertyPath: m_LocalPosition.y
      value: 0
      objectReference: {fileID: 0}
    - target: {fileID: -8679921383154817045, guid: cb4f9e09de5234c788a68327a234ef9a, type: 3}
      propertyPath: m_LocalPosition.z
      value: 0
      objectReference: {fileID: 0}
    - target: {fileID: -8679921383154817045, guid: cb4f9e09de5234c788a68327a234ef9a, type: 3}
      propertyPath: m_LocalRotation.w
      value: 1
      objectReference: {fileID: 0}
    - target: {fileID: -8679921383154817045, guid: cb4f9e09de5234c788a68327a234ef9a, type: 3}
      propertyPath: m_LocalRotation.x
      value: -0
      objectReference: {fileID: 0}
    - target: {fileID: -8679921383154817045, guid: cb4f9e09de5234c788a68327a234ef9a, type: 3}
      propertyPath: m_LocalRotation.y
      value: -0
      objectReference: {fileID: 0}
    - target: {fileID: -8679921383154817045, guid: cb4f9e09de5234c788a68327a234ef9a, type: 3}
      propertyPath: m_LocalRotation.z
      value: -0
      objectReference: {fileID: 0}
    - target: {fileID: -8679921383154817045, guid: cb4f9e09de5234c788a68327a234ef9a, type: 3}
      propertyPath: m_LocalEulerAnglesHint.x
      value: 0
      objectReference: {fileID: 0}
    - target: {fileID: -8679921383154817045, guid: cb4f9e09de5234c788a68327a234ef9a, type: 3}
      propertyPath: m_LocalEulerAnglesHint.y
      value: 0
      objectReference: {fileID: 0}
    - target: {fileID: -8679921383154817045, guid: cb4f9e09de5234c788a68327a234ef9a, type: 3}
      propertyPath: m_LocalEulerAnglesHint.z
      value: 0
      objectReference: {fileID: 0}
    - target: {fileID: -8626318464933945881, guid: cb4f9e09de5234c788a68327a234ef9a, type: 3}
      propertyPath: m_LocalEulerAnglesHint.x
      value: -0
      objectReference: {fileID: 0}
    - target: {fileID: -8626318464933945881, guid: cb4f9e09de5234c788a68327a234ef9a, type: 3}
      propertyPath: m_LocalEulerAnglesHint.y
      value: 0
      objectReference: {fileID: 0}
    - target: {fileID: -8626318464933945881, guid: cb4f9e09de5234c788a68327a234ef9a, type: 3}
      propertyPath: m_LocalEulerAnglesHint.z
      value: 0
      objectReference: {fileID: 0}
    - target: {fileID: -8263630361177700428, guid: cb4f9e09de5234c788a68327a234ef9a, type: 3}
      propertyPath: m_LocalEulerAnglesHint.x
      value: 0
      objectReference: {fileID: 0}
    - target: {fileID: -8263630361177700428, guid: cb4f9e09de5234c788a68327a234ef9a, type: 3}
      propertyPath: m_LocalEulerAnglesHint.y
      value: 0
      objectReference: {fileID: 0}
    - target: {fileID: -8263630361177700428, guid: cb4f9e09de5234c788a68327a234ef9a, type: 3}
      propertyPath: m_LocalEulerAnglesHint.z
      value: 0
      objectReference: {fileID: 0}
    - target: {fileID: -7959806760218036748, guid: cb4f9e09de5234c788a68327a234ef9a, type: 3}
      propertyPath: m_LocalEulerAnglesHint.x
      value: 0
      objectReference: {fileID: 0}
    - target: {fileID: -7959806760218036748, guid: cb4f9e09de5234c788a68327a234ef9a, type: 3}
      propertyPath: m_LocalEulerAnglesHint.y
      value: 0
      objectReference: {fileID: 0}
    - target: {fileID: -7959806760218036748, guid: cb4f9e09de5234c788a68327a234ef9a, type: 3}
      propertyPath: m_LocalEulerAnglesHint.z
      value: 0
      objectReference: {fileID: 0}
    - target: {fileID: -7894633615142908354, guid: cb4f9e09de5234c788a68327a234ef9a, type: 3}
      propertyPath: m_LocalEulerAnglesHint.x
      value: -0
      objectReference: {fileID: 0}
    - target: {fileID: -7894633615142908354, guid: cb4f9e09de5234c788a68327a234ef9a, type: 3}
      propertyPath: m_LocalEulerAnglesHint.y
      value: 0
      objectReference: {fileID: 0}
    - target: {fileID: -7894633615142908354, guid: cb4f9e09de5234c788a68327a234ef9a, type: 3}
      propertyPath: m_LocalEulerAnglesHint.z
      value: 0
      objectReference: {fileID: 0}
    - target: {fileID: -7872855388333474398, guid: cb4f9e09de5234c788a68327a234ef9a, type: 3}
      propertyPath: m_LocalEulerAnglesHint.x
      value: -0
      objectReference: {fileID: 0}
    - target: {fileID: -7872855388333474398, guid: cb4f9e09de5234c788a68327a234ef9a, type: 3}
      propertyPath: m_LocalEulerAnglesHint.y
      value: 0
      objectReference: {fileID: 0}
    - target: {fileID: -7872855388333474398, guid: cb4f9e09de5234c788a68327a234ef9a, type: 3}
      propertyPath: m_LocalEulerAnglesHint.z
      value: 0
      objectReference: {fileID: 0}
    - target: {fileID: -7164736901498871327, guid: cb4f9e09de5234c788a68327a234ef9a, type: 3}
      propertyPath: m_LocalEulerAnglesHint.x
      value: 0
      objectReference: {fileID: 0}
    - target: {fileID: -7164736901498871327, guid: cb4f9e09de5234c788a68327a234ef9a, type: 3}
      propertyPath: m_LocalEulerAnglesHint.y
      value: 0
      objectReference: {fileID: 0}
    - target: {fileID: -7164736901498871327, guid: cb4f9e09de5234c788a68327a234ef9a, type: 3}
      propertyPath: m_LocalEulerAnglesHint.z
      value: 0
      objectReference: {fileID: 0}
    - target: {fileID: -7162144552548415759, guid: cb4f9e09de5234c788a68327a234ef9a, type: 3}
      propertyPath: m_LocalEulerAnglesHint.x
      value: 0
      objectReference: {fileID: 0}
    - target: {fileID: -7162144552548415759, guid: cb4f9e09de5234c788a68327a234ef9a, type: 3}
      propertyPath: m_LocalEulerAnglesHint.y
      value: 0
      objectReference: {fileID: 0}
    - target: {fileID: -7162144552548415759, guid: cb4f9e09de5234c788a68327a234ef9a, type: 3}
      propertyPath: m_LocalEulerAnglesHint.z
      value: 0
      objectReference: {fileID: 0}
    - target: {fileID: -7148462494685997419, guid: cb4f9e09de5234c788a68327a234ef9a, type: 3}
      propertyPath: m_LocalEulerAnglesHint.x
      value: 0
      objectReference: {fileID: 0}
    - target: {fileID: -7148462494685997419, guid: cb4f9e09de5234c788a68327a234ef9a, type: 3}
      propertyPath: m_LocalEulerAnglesHint.y
      value: 0
      objectReference: {fileID: 0}
    - target: {fileID: -7148462494685997419, guid: cb4f9e09de5234c788a68327a234ef9a, type: 3}
      propertyPath: m_LocalEulerAnglesHint.z
      value: 0
      objectReference: {fileID: 0}
    - target: {fileID: -6992485226205158233, guid: cb4f9e09de5234c788a68327a234ef9a, type: 3}
      propertyPath: m_LocalEulerAnglesHint.x
      value: -0
      objectReference: {fileID: 0}
    - target: {fileID: -6992485226205158233, guid: cb4f9e09de5234c788a68327a234ef9a, type: 3}
      propertyPath: m_LocalEulerAnglesHint.y
      value: 0
      objectReference: {fileID: 0}
    - target: {fileID: -6992485226205158233, guid: cb4f9e09de5234c788a68327a234ef9a, type: 3}
      propertyPath: m_LocalEulerAnglesHint.z
      value: 0
      objectReference: {fileID: 0}
    - target: {fileID: -6712735900064368529, guid: cb4f9e09de5234c788a68327a234ef9a, type: 3}
      propertyPath: m_LocalEulerAnglesHint.x
      value: 0
      objectReference: {fileID: 0}
    - target: {fileID: -6712735900064368529, guid: cb4f9e09de5234c788a68327a234ef9a, type: 3}
      propertyPath: m_LocalEulerAnglesHint.y
      value: 0
      objectReference: {fileID: 0}
    - target: {fileID: -6712735900064368529, guid: cb4f9e09de5234c788a68327a234ef9a, type: 3}
      propertyPath: m_LocalEulerAnglesHint.z
      value: -0
      objectReference: {fileID: 0}
    - target: {fileID: -6428702242891436841, guid: cb4f9e09de5234c788a68327a234ef9a, type: 3}
      propertyPath: m_LocalEulerAnglesHint.x
      value: -0
      objectReference: {fileID: 0}
    - target: {fileID: -6428702242891436841, guid: cb4f9e09de5234c788a68327a234ef9a, type: 3}
      propertyPath: m_LocalEulerAnglesHint.y
      value: 0
      objectReference: {fileID: 0}
    - target: {fileID: -6428702242891436841, guid: cb4f9e09de5234c788a68327a234ef9a, type: 3}
      propertyPath: m_LocalEulerAnglesHint.z
      value: 0
      objectReference: {fileID: 0}
    - target: {fileID: -5505493011095926525, guid: cb4f9e09de5234c788a68327a234ef9a, type: 3}
      propertyPath: m_LocalEulerAnglesHint.x
      value: 0
      objectReference: {fileID: 0}
    - target: {fileID: -5505493011095926525, guid: cb4f9e09de5234c788a68327a234ef9a, type: 3}
      propertyPath: m_LocalEulerAnglesHint.y
      value: -0
      objectReference: {fileID: 0}
    - target: {fileID: -5505493011095926525, guid: cb4f9e09de5234c788a68327a234ef9a, type: 3}
      propertyPath: m_LocalEulerAnglesHint.z
      value: -0
      objectReference: {fileID: 0}
    - target: {fileID: -5118900581829057747, guid: cb4f9e09de5234c788a68327a234ef9a, type: 3}
      propertyPath: m_LocalEulerAnglesHint.x
      value: 0
      objectReference: {fileID: 0}
    - target: {fileID: -5118900581829057747, guid: cb4f9e09de5234c788a68327a234ef9a, type: 3}
      propertyPath: m_LocalEulerAnglesHint.y
      value: 0
      objectReference: {fileID: 0}
    - target: {fileID: -5118900581829057747, guid: cb4f9e09de5234c788a68327a234ef9a, type: 3}
      propertyPath: m_LocalEulerAnglesHint.z
      value: 0
      objectReference: {fileID: 0}
    - target: {fileID: -4911631180728726406, guid: cb4f9e09de5234c788a68327a234ef9a, type: 3}
      propertyPath: m_LocalEulerAnglesHint.x
      value: -0
      objectReference: {fileID: 0}
    - target: {fileID: -4911631180728726406, guid: cb4f9e09de5234c788a68327a234ef9a, type: 3}
      propertyPath: m_LocalEulerAnglesHint.y
      value: 0
      objectReference: {fileID: 0}
    - target: {fileID: -4911631180728726406, guid: cb4f9e09de5234c788a68327a234ef9a, type: 3}
      propertyPath: m_LocalEulerAnglesHint.z
      value: 0
      objectReference: {fileID: 0}
    - target: {fileID: -4524027915376676785, guid: cb4f9e09de5234c788a68327a234ef9a, type: 3}
      propertyPath: m_LocalEulerAnglesHint.x
      value: 0
      objectReference: {fileID: 0}
    - target: {fileID: -4524027915376676785, guid: cb4f9e09de5234c788a68327a234ef9a, type: 3}
      propertyPath: m_LocalEulerAnglesHint.y
      value: 0
      objectReference: {fileID: 0}
    - target: {fileID: -4524027915376676785, guid: cb4f9e09de5234c788a68327a234ef9a, type: 3}
      propertyPath: m_LocalEulerAnglesHint.z
      value: 0
      objectReference: {fileID: 0}
    - target: {fileID: -4471816381405499282, guid: cb4f9e09de5234c788a68327a234ef9a, type: 3}
      propertyPath: m_LocalEulerAnglesHint.x
      value: 0
      objectReference: {fileID: 0}
    - target: {fileID: -4471816381405499282, guid: cb4f9e09de5234c788a68327a234ef9a, type: 3}
      propertyPath: m_LocalEulerAnglesHint.y
      value: 0
      objectReference: {fileID: 0}
    - target: {fileID: -4471816381405499282, guid: cb4f9e09de5234c788a68327a234ef9a, type: 3}
      propertyPath: m_LocalEulerAnglesHint.z
      value: 0
      objectReference: {fileID: 0}
    - target: {fileID: -3752777700973568166, guid: cb4f9e09de5234c788a68327a234ef9a, type: 3}
      propertyPath: m_LocalEulerAnglesHint.x
      value: -0
      objectReference: {fileID: 0}
    - target: {fileID: -3752777700973568166, guid: cb4f9e09de5234c788a68327a234ef9a, type: 3}
      propertyPath: m_LocalEulerAnglesHint.y
      value: 0
      objectReference: {fileID: 0}
    - target: {fileID: -3752777700973568166, guid: cb4f9e09de5234c788a68327a234ef9a, type: 3}
      propertyPath: m_LocalEulerAnglesHint.z
      value: 0
      objectReference: {fileID: 0}
    - target: {fileID: -3528924868390877936, guid: cb4f9e09de5234c788a68327a234ef9a, type: 3}
      propertyPath: m_LocalEulerAnglesHint.x
      value: 0
      objectReference: {fileID: 0}
    - target: {fileID: -3528924868390877936, guid: cb4f9e09de5234c788a68327a234ef9a, type: 3}
      propertyPath: m_LocalEulerAnglesHint.y
      value: 0
      objectReference: {fileID: 0}
    - target: {fileID: -3528924868390877936, guid: cb4f9e09de5234c788a68327a234ef9a, type: 3}
      propertyPath: m_LocalEulerAnglesHint.z
      value: 0
      objectReference: {fileID: 0}
    - target: {fileID: -2980432935758504609, guid: cb4f9e09de5234c788a68327a234ef9a, type: 3}
      propertyPath: m_LocalEulerAnglesHint.x
      value: 0
      objectReference: {fileID: 0}
    - target: {fileID: -2980432935758504609, guid: cb4f9e09de5234c788a68327a234ef9a, type: 3}
      propertyPath: m_LocalEulerAnglesHint.y
      value: 0
      objectReference: {fileID: 0}
    - target: {fileID: -2980432935758504609, guid: cb4f9e09de5234c788a68327a234ef9a, type: 3}
      propertyPath: m_LocalEulerAnglesHint.z
      value: 0
      objectReference: {fileID: 0}
    - target: {fileID: -2869065192048028844, guid: cb4f9e09de5234c788a68327a234ef9a, type: 3}
      propertyPath: m_LocalEulerAnglesHint.x
      value: 0
      objectReference: {fileID: 0}
    - target: {fileID: -2869065192048028844, guid: cb4f9e09de5234c788a68327a234ef9a, type: 3}
      propertyPath: m_LocalEulerAnglesHint.y
      value: 0
      objectReference: {fileID: 0}
    - target: {fileID: -2869065192048028844, guid: cb4f9e09de5234c788a68327a234ef9a, type: 3}
      propertyPath: m_LocalEulerAnglesHint.z
      value: -0
      objectReference: {fileID: 0}
    - target: {fileID: -2609605681936299153, guid: cb4f9e09de5234c788a68327a234ef9a, type: 3}
      propertyPath: m_LocalEulerAnglesHint.x
      value: -0
      objectReference: {fileID: 0}
    - target: {fileID: -2609605681936299153, guid: cb4f9e09de5234c788a68327a234ef9a, type: 3}
      propertyPath: m_LocalEulerAnglesHint.y
      value: 0
      objectReference: {fileID: 0}
    - target: {fileID: -2609605681936299153, guid: cb4f9e09de5234c788a68327a234ef9a, type: 3}
      propertyPath: m_LocalEulerAnglesHint.z
      value: 0
      objectReference: {fileID: 0}
    - target: {fileID: -2514230138674919691, guid: cb4f9e09de5234c788a68327a234ef9a, type: 3}
      propertyPath: m_LocalEulerAnglesHint.x
      value: 0
      objectReference: {fileID: 0}
    - target: {fileID: -2514230138674919691, guid: cb4f9e09de5234c788a68327a234ef9a, type: 3}
      propertyPath: m_LocalEulerAnglesHint.y
      value: 0
      objectReference: {fileID: 0}
    - target: {fileID: -2514230138674919691, guid: cb4f9e09de5234c788a68327a234ef9a, type: 3}
      propertyPath: m_LocalEulerAnglesHint.z
      value: 0
      objectReference: {fileID: 0}
    - target: {fileID: -2260350825161553272, guid: cb4f9e09de5234c788a68327a234ef9a, type: 3}
      propertyPath: m_LocalEulerAnglesHint.x
      value: -0
      objectReference: {fileID: 0}
    - target: {fileID: -2260350825161553272, guid: cb4f9e09de5234c788a68327a234ef9a, type: 3}
      propertyPath: m_LocalEulerAnglesHint.y
      value: 0
      objectReference: {fileID: 0}
    - target: {fileID: -2260350825161553272, guid: cb4f9e09de5234c788a68327a234ef9a, type: 3}
      propertyPath: m_LocalEulerAnglesHint.z
      value: -0
      objectReference: {fileID: 0}
    - target: {fileID: -2239421934008019295, guid: cb4f9e09de5234c788a68327a234ef9a, type: 3}
      propertyPath: m_LocalEulerAnglesHint.x
      value: 0
      objectReference: {fileID: 0}
    - target: {fileID: -2239421934008019295, guid: cb4f9e09de5234c788a68327a234ef9a, type: 3}
      propertyPath: m_LocalEulerAnglesHint.y
      value: 0
      objectReference: {fileID: 0}
    - target: {fileID: -2239421934008019295, guid: cb4f9e09de5234c788a68327a234ef9a, type: 3}
      propertyPath: m_LocalEulerAnglesHint.z
      value: 0
      objectReference: {fileID: 0}
    - target: {fileID: -2048740658207367302, guid: cb4f9e09de5234c788a68327a234ef9a, type: 3}
      propertyPath: m_LocalEulerAnglesHint.x
      value: 0
      objectReference: {fileID: 0}
    - target: {fileID: -2048740658207367302, guid: cb4f9e09de5234c788a68327a234ef9a, type: 3}
      propertyPath: m_LocalEulerAnglesHint.y
      value: -0
      objectReference: {fileID: 0}
    - target: {fileID: -2048740658207367302, guid: cb4f9e09de5234c788a68327a234ef9a, type: 3}
      propertyPath: m_LocalEulerAnglesHint.z
      value: 0
      objectReference: {fileID: 0}
    - target: {fileID: -1941866839524035043, guid: cb4f9e09de5234c788a68327a234ef9a, type: 3}
      propertyPath: m_LocalEulerAnglesHint.x
      value: -0
      objectReference: {fileID: 0}
    - target: {fileID: -1941866839524035043, guid: cb4f9e09de5234c788a68327a234ef9a, type: 3}
      propertyPath: m_LocalEulerAnglesHint.y
      value: 0
      objectReference: {fileID: 0}
    - target: {fileID: -1941866839524035043, guid: cb4f9e09de5234c788a68327a234ef9a, type: 3}
      propertyPath: m_LocalEulerAnglesHint.z
      value: -0
      objectReference: {fileID: 0}
    - target: {fileID: -1839393835938346582, guid: cb4f9e09de5234c788a68327a234ef9a, type: 3}
      propertyPath: m_LocalEulerAnglesHint.x
      value: -0
      objectReference: {fileID: 0}
    - target: {fileID: -1839393835938346582, guid: cb4f9e09de5234c788a68327a234ef9a, type: 3}
      propertyPath: m_LocalEulerAnglesHint.y
      value: -0
      objectReference: {fileID: 0}
    - target: {fileID: -1839393835938346582, guid: cb4f9e09de5234c788a68327a234ef9a, type: 3}
      propertyPath: m_LocalEulerAnglesHint.z
      value: 0
      objectReference: {fileID: 0}
    - target: {fileID: -1233059834852773817, guid: cb4f9e09de5234c788a68327a234ef9a, type: 3}
      propertyPath: m_LocalEulerAnglesHint.x
      value: 0
      objectReference: {fileID: 0}
    - target: {fileID: -1233059834852773817, guid: cb4f9e09de5234c788a68327a234ef9a, type: 3}
      propertyPath: m_LocalEulerAnglesHint.y
      value: 0
      objectReference: {fileID: 0}
    - target: {fileID: -1233059834852773817, guid: cb4f9e09de5234c788a68327a234ef9a, type: 3}
      propertyPath: m_LocalEulerAnglesHint.z
      value: 0
      objectReference: {fileID: 0}
    - target: {fileID: -844543299812035762, guid: cb4f9e09de5234c788a68327a234ef9a, type: 3}
      propertyPath: m_LocalEulerAnglesHint.x
      value: 0
      objectReference: {fileID: 0}
    - target: {fileID: -844543299812035762, guid: cb4f9e09de5234c788a68327a234ef9a, type: 3}
      propertyPath: m_LocalEulerAnglesHint.y
      value: 0
      objectReference: {fileID: 0}
    - target: {fileID: -844543299812035762, guid: cb4f9e09de5234c788a68327a234ef9a, type: 3}
      propertyPath: m_LocalEulerAnglesHint.z
      value: 0
      objectReference: {fileID: 0}
    - target: {fileID: -688097283801755473, guid: cb4f9e09de5234c788a68327a234ef9a, type: 3}
      propertyPath: m_LocalEulerAnglesHint.x
      value: -0
      objectReference: {fileID: 0}
    - target: {fileID: -688097283801755473, guid: cb4f9e09de5234c788a68327a234ef9a, type: 3}
      propertyPath: m_LocalEulerAnglesHint.y
      value: 0
      objectReference: {fileID: 0}
    - target: {fileID: -688097283801755473, guid: cb4f9e09de5234c788a68327a234ef9a, type: 3}
      propertyPath: m_LocalEulerAnglesHint.z
      value: -0
      objectReference: {fileID: 0}
    - target: {fileID: -160453861794000518, guid: cb4f9e09de5234c788a68327a234ef9a, type: 3}
      propertyPath: m_LocalEulerAnglesHint.x
      value: 0
      objectReference: {fileID: 0}
    - target: {fileID: -160453861794000518, guid: cb4f9e09de5234c788a68327a234ef9a, type: 3}
      propertyPath: m_LocalEulerAnglesHint.y
      value: 0
      objectReference: {fileID: 0}
    - target: {fileID: -160453861794000518, guid: cb4f9e09de5234c788a68327a234ef9a, type: 3}
      propertyPath: m_LocalEulerAnglesHint.z
      value: 0
      objectReference: {fileID: 0}
    - target: {fileID: -156075290912524848, guid: cb4f9e09de5234c788a68327a234ef9a, type: 3}
      propertyPath: m_LocalEulerAnglesHint.x
      value: 0
      objectReference: {fileID: 0}
    - target: {fileID: -156075290912524848, guid: cb4f9e09de5234c788a68327a234ef9a, type: 3}
      propertyPath: m_LocalEulerAnglesHint.y
      value: 0
      objectReference: {fileID: 0}
    - target: {fileID: -156075290912524848, guid: cb4f9e09de5234c788a68327a234ef9a, type: 3}
      propertyPath: m_LocalEulerAnglesHint.z
      value: 0
      objectReference: {fileID: 0}
    - target: {fileID: 18198896178583529, guid: cb4f9e09de5234c788a68327a234ef9a, type: 3}
      propertyPath: m_LocalEulerAnglesHint.x
      value: 0
      objectReference: {fileID: 0}
    - target: {fileID: 18198896178583529, guid: cb4f9e09de5234c788a68327a234ef9a, type: 3}
      propertyPath: m_LocalEulerAnglesHint.y
      value: 0
      objectReference: {fileID: 0}
    - target: {fileID: 18198896178583529, guid: cb4f9e09de5234c788a68327a234ef9a, type: 3}
      propertyPath: m_LocalEulerAnglesHint.z
      value: 0
      objectReference: {fileID: 0}
    - target: {fileID: 386034233754189316, guid: cb4f9e09de5234c788a68327a234ef9a, type: 3}
      propertyPath: m_LocalEulerAnglesHint.x
      value: 0
      objectReference: {fileID: 0}
    - target: {fileID: 386034233754189316, guid: cb4f9e09de5234c788a68327a234ef9a, type: 3}
      propertyPath: m_LocalEulerAnglesHint.y
      value: 0
      objectReference: {fileID: 0}
    - target: {fileID: 386034233754189316, guid: cb4f9e09de5234c788a68327a234ef9a, type: 3}
      propertyPath: m_LocalEulerAnglesHint.z
      value: -0
      objectReference: {fileID: 0}
    - target: {fileID: 441589880311749048, guid: cb4f9e09de5234c788a68327a234ef9a, type: 3}
      propertyPath: m_LocalEulerAnglesHint.x
      value: -0
      objectReference: {fileID: 0}
    - target: {fileID: 441589880311749048, guid: cb4f9e09de5234c788a68327a234ef9a, type: 3}
      propertyPath: m_LocalEulerAnglesHint.y
      value: 0
      objectReference: {fileID: 0}
    - target: {fileID: 441589880311749048, guid: cb4f9e09de5234c788a68327a234ef9a, type: 3}
      propertyPath: m_LocalEulerAnglesHint.z
      value: 0
      objectReference: {fileID: 0}
    - target: {fileID: 919132149155446097, guid: cb4f9e09de5234c788a68327a234ef9a, type: 3}
      propertyPath: m_Name
      value: Wall_AnimationFinal
      objectReference: {fileID: 0}
    - target: {fileID: 1154223074477058189, guid: cb4f9e09de5234c788a68327a234ef9a, type: 3}
      propertyPath: m_LocalEulerAnglesHint.x
      value: -0
      objectReference: {fileID: 0}
    - target: {fileID: 1154223074477058189, guid: cb4f9e09de5234c788a68327a234ef9a, type: 3}
      propertyPath: m_LocalEulerAnglesHint.y
      value: 0
      objectReference: {fileID: 0}
    - target: {fileID: 1154223074477058189, guid: cb4f9e09de5234c788a68327a234ef9a, type: 3}
      propertyPath: m_LocalEulerAnglesHint.z
      value: 0
      objectReference: {fileID: 0}
    - target: {fileID: 1727106324853143265, guid: cb4f9e09de5234c788a68327a234ef9a, type: 3}
      propertyPath: m_LocalEulerAnglesHint.x
      value: 0
      objectReference: {fileID: 0}
    - target: {fileID: 1727106324853143265, guid: cb4f9e09de5234c788a68327a234ef9a, type: 3}
      propertyPath: m_LocalEulerAnglesHint.y
      value: -0
      objectReference: {fileID: 0}
    - target: {fileID: 1727106324853143265, guid: cb4f9e09de5234c788a68327a234ef9a, type: 3}
      propertyPath: m_LocalEulerAnglesHint.z
      value: 0
      objectReference: {fileID: 0}
    - target: {fileID: 1844533290023224278, guid: cb4f9e09de5234c788a68327a234ef9a, type: 3}
      propertyPath: m_LocalEulerAnglesHint.x
      value: -0
      objectReference: {fileID: 0}
    - target: {fileID: 1844533290023224278, guid: cb4f9e09de5234c788a68327a234ef9a, type: 3}
      propertyPath: m_LocalEulerAnglesHint.y
      value: 0
      objectReference: {fileID: 0}
    - target: {fileID: 1844533290023224278, guid: cb4f9e09de5234c788a68327a234ef9a, type: 3}
      propertyPath: m_LocalEulerAnglesHint.z
      value: -0
      objectReference: {fileID: 0}
    - target: {fileID: 2223639932434330405, guid: cb4f9e09de5234c788a68327a234ef9a, type: 3}
      propertyPath: m_PlayAutomatically
      value: 1
      objectReference: {fileID: 0}
    - target: {fileID: 2867032206993177520, guid: cb4f9e09de5234c788a68327a234ef9a, type: 3}
      propertyPath: m_LocalEulerAnglesHint.x
      value: -0
      objectReference: {fileID: 0}
    - target: {fileID: 2867032206993177520, guid: cb4f9e09de5234c788a68327a234ef9a, type: 3}
      propertyPath: m_LocalEulerAnglesHint.y
      value: 0
      objectReference: {fileID: 0}
    - target: {fileID: 2867032206993177520, guid: cb4f9e09de5234c788a68327a234ef9a, type: 3}
      propertyPath: m_LocalEulerAnglesHint.z
      value: -0
      objectReference: {fileID: 0}
    - target: {fileID: 3061097128059710679, guid: cb4f9e09de5234c788a68327a234ef9a, type: 3}
      propertyPath: m_LocalEulerAnglesHint.x
      value: -0
      objectReference: {fileID: 0}
    - target: {fileID: 3061097128059710679, guid: cb4f9e09de5234c788a68327a234ef9a, type: 3}
      propertyPath: m_LocalEulerAnglesHint.y
      value: 0
      objectReference: {fileID: 0}
    - target: {fileID: 3061097128059710679, guid: cb4f9e09de5234c788a68327a234ef9a, type: 3}
      propertyPath: m_LocalEulerAnglesHint.z
      value: 0
      objectReference: {fileID: 0}
    - target: {fileID: 3069839873194279533, guid: cb4f9e09de5234c788a68327a234ef9a, type: 3}
      propertyPath: m_LocalEulerAnglesHint.x
      value: 0
      objectReference: {fileID: 0}
    - target: {fileID: 3069839873194279533, guid: cb4f9e09de5234c788a68327a234ef9a, type: 3}
      propertyPath: m_LocalEulerAnglesHint.y
      value: -0
      objectReference: {fileID: 0}
    - target: {fileID: 3069839873194279533, guid: cb4f9e09de5234c788a68327a234ef9a, type: 3}
      propertyPath: m_LocalEulerAnglesHint.z
      value: -0
      objectReference: {fileID: 0}
    - target: {fileID: 3150871578335892497, guid: cb4f9e09de5234c788a68327a234ef9a, type: 3}
      propertyPath: m_LocalEulerAnglesHint.x
      value: -0
      objectReference: {fileID: 0}
    - target: {fileID: 3150871578335892497, guid: cb4f9e09de5234c788a68327a234ef9a, type: 3}
      propertyPath: m_LocalEulerAnglesHint.y
      value: 0
      objectReference: {fileID: 0}
    - target: {fileID: 3150871578335892497, guid: cb4f9e09de5234c788a68327a234ef9a, type: 3}
      propertyPath: m_LocalEulerAnglesHint.z
      value: 0
      objectReference: {fileID: 0}
    - target: {fileID: 3695714391251377338, guid: cb4f9e09de5234c788a68327a234ef9a, type: 3}
      propertyPath: m_LocalEulerAnglesHint.x
      value: -0
      objectReference: {fileID: 0}
    - target: {fileID: 3695714391251377338, guid: cb4f9e09de5234c788a68327a234ef9a, type: 3}
      propertyPath: m_LocalEulerAnglesHint.y
      value: 0
      objectReference: {fileID: 0}
    - target: {fileID: 3695714391251377338, guid: cb4f9e09de5234c788a68327a234ef9a, type: 3}
      propertyPath: m_LocalEulerAnglesHint.z
      value: -0
      objectReference: {fileID: 0}
    - target: {fileID: 3904391201792322963, guid: cb4f9e09de5234c788a68327a234ef9a, type: 3}
      propertyPath: m_LocalEulerAnglesHint.x
      value: 0
      objectReference: {fileID: 0}
    - target: {fileID: 3904391201792322963, guid: cb4f9e09de5234c788a68327a234ef9a, type: 3}
      propertyPath: m_LocalEulerAnglesHint.y
      value: 0
      objectReference: {fileID: 0}
    - target: {fileID: 3904391201792322963, guid: cb4f9e09de5234c788a68327a234ef9a, type: 3}
      propertyPath: m_LocalEulerAnglesHint.z
      value: 0
      objectReference: {fileID: 0}
    - target: {fileID: 3985573042975211979, guid: cb4f9e09de5234c788a68327a234ef9a, type: 3}
      propertyPath: m_LocalEulerAnglesHint.x
      value: 0
      objectReference: {fileID: 0}
    - target: {fileID: 3985573042975211979, guid: cb4f9e09de5234c788a68327a234ef9a, type: 3}
      propertyPath: m_LocalEulerAnglesHint.y
      value: 0
      objectReference: {fileID: 0}
    - target: {fileID: 3985573042975211979, guid: cb4f9e09de5234c788a68327a234ef9a, type: 3}
      propertyPath: m_LocalEulerAnglesHint.z
      value: 0
      objectReference: {fileID: 0}
    - target: {fileID: 4128126479400913984, guid: cb4f9e09de5234c788a68327a234ef9a, type: 3}
      propertyPath: m_LocalEulerAnglesHint.x
      value: 0
      objectReference: {fileID: 0}
    - target: {fileID: 4128126479400913984, guid: cb4f9e09de5234c788a68327a234ef9a, type: 3}
      propertyPath: m_LocalEulerAnglesHint.y
      value: 0
      objectReference: {fileID: 0}
    - target: {fileID: 4128126479400913984, guid: cb4f9e09de5234c788a68327a234ef9a, type: 3}
      propertyPath: m_LocalEulerAnglesHint.z
      value: -0
      objectReference: {fileID: 0}
    - target: {fileID: 4406149622536699562, guid: cb4f9e09de5234c788a68327a234ef9a, type: 3}
      propertyPath: m_LocalEulerAnglesHint.x
      value: 0
      objectReference: {fileID: 0}
    - target: {fileID: 4406149622536699562, guid: cb4f9e09de5234c788a68327a234ef9a, type: 3}
      propertyPath: m_LocalEulerAnglesHint.y
      value: 0
      objectReference: {fileID: 0}
    - target: {fileID: 4406149622536699562, guid: cb4f9e09de5234c788a68327a234ef9a, type: 3}
      propertyPath: m_LocalEulerAnglesHint.z
      value: 0
      objectReference: {fileID: 0}
    - target: {fileID: 4518617650987051321, guid: cb4f9e09de5234c788a68327a234ef9a, type: 3}
      propertyPath: m_LocalEulerAnglesHint.x
      value: -0
      objectReference: {fileID: 0}
    - target: {fileID: 4518617650987051321, guid: cb4f9e09de5234c788a68327a234ef9a, type: 3}
      propertyPath: m_LocalEulerAnglesHint.y
      value: 0
      objectReference: {fileID: 0}
    - target: {fileID: 4518617650987051321, guid: cb4f9e09de5234c788a68327a234ef9a, type: 3}
      propertyPath: m_LocalEulerAnglesHint.z
      value: 0
      objectReference: {fileID: 0}
    - target: {fileID: 4748193870639217492, guid: cb4f9e09de5234c788a68327a234ef9a, type: 3}
      propertyPath: m_LocalEulerAnglesHint.x
      value: 0
      objectReference: {fileID: 0}
    - target: {fileID: 4748193870639217492, guid: cb4f9e09de5234c788a68327a234ef9a, type: 3}
      propertyPath: m_LocalEulerAnglesHint.y
      value: 0
      objectReference: {fileID: 0}
    - target: {fileID: 4748193870639217492, guid: cb4f9e09de5234c788a68327a234ef9a, type: 3}
      propertyPath: m_LocalEulerAnglesHint.z
      value: 0
      objectReference: {fileID: 0}
    - target: {fileID: 4834687136033705760, guid: cb4f9e09de5234c788a68327a234ef9a, type: 3}
      propertyPath: m_LocalEulerAnglesHint.x
      value: 0
      objectReference: {fileID: 0}
    - target: {fileID: 4834687136033705760, guid: cb4f9e09de5234c788a68327a234ef9a, type: 3}
      propertyPath: m_LocalEulerAnglesHint.y
      value: 0
      objectReference: {fileID: 0}
    - target: {fileID: 4834687136033705760, guid: cb4f9e09de5234c788a68327a234ef9a, type: 3}
      propertyPath: m_LocalEulerAnglesHint.z
      value: 0
      objectReference: {fileID: 0}
    - target: {fileID: 5148636474265273286, guid: cb4f9e09de5234c788a68327a234ef9a, type: 3}
      propertyPath: m_LocalEulerAnglesHint.x
      value: -0
      objectReference: {fileID: 0}
    - target: {fileID: 5148636474265273286, guid: cb4f9e09de5234c788a68327a234ef9a, type: 3}
      propertyPath: m_LocalEulerAnglesHint.y
      value: 0
      objectReference: {fileID: 0}
    - target: {fileID: 5148636474265273286, guid: cb4f9e09de5234c788a68327a234ef9a, type: 3}
      propertyPath: m_LocalEulerAnglesHint.z
      value: 0
      objectReference: {fileID: 0}
    - target: {fileID: 5741156426335977743, guid: cb4f9e09de5234c788a68327a234ef9a, type: 3}
      propertyPath: m_LocalEulerAnglesHint.x
      value: -0
      objectReference: {fileID: 0}
    - target: {fileID: 5741156426335977743, guid: cb4f9e09de5234c788a68327a234ef9a, type: 3}
      propertyPath: m_LocalEulerAnglesHint.y
      value: 0
      objectReference: {fileID: 0}
    - target: {fileID: 5741156426335977743, guid: cb4f9e09de5234c788a68327a234ef9a, type: 3}
      propertyPath: m_LocalEulerAnglesHint.z
      value: 0
      objectReference: {fileID: 0}
    - target: {fileID: 5936350245324894247, guid: cb4f9e09de5234c788a68327a234ef9a, type: 3}
      propertyPath: m_LocalEulerAnglesHint.x
      value: 0
      objectReference: {fileID: 0}
    - target: {fileID: 5936350245324894247, guid: cb4f9e09de5234c788a68327a234ef9a, type: 3}
      propertyPath: m_LocalEulerAnglesHint.y
      value: 0
      objectReference: {fileID: 0}
    - target: {fileID: 5936350245324894247, guid: cb4f9e09de5234c788a68327a234ef9a, type: 3}
      propertyPath: m_LocalEulerAnglesHint.z
      value: 0
      objectReference: {fileID: 0}
    - target: {fileID: 6548708718069493396, guid: cb4f9e09de5234c788a68327a234ef9a, type: 3}
      propertyPath: m_LocalEulerAnglesHint.x
      value: -0
      objectReference: {fileID: 0}
    - target: {fileID: 6548708718069493396, guid: cb4f9e09de5234c788a68327a234ef9a, type: 3}
      propertyPath: m_LocalEulerAnglesHint.y
      value: 0
      objectReference: {fileID: 0}
    - target: {fileID: 6548708718069493396, guid: cb4f9e09de5234c788a68327a234ef9a, type: 3}
      propertyPath: m_LocalEulerAnglesHint.z
      value: 0
      objectReference: {fileID: 0}
    - target: {fileID: 6578816565782129732, guid: cb4f9e09de5234c788a68327a234ef9a, type: 3}
      propertyPath: m_LocalEulerAnglesHint.x
      value: 0
      objectReference: {fileID: 0}
    - target: {fileID: 6578816565782129732, guid: cb4f9e09de5234c788a68327a234ef9a, type: 3}
      propertyPath: m_LocalEulerAnglesHint.y
      value: 0
      objectReference: {fileID: 0}
    - target: {fileID: 6578816565782129732, guid: cb4f9e09de5234c788a68327a234ef9a, type: 3}
      propertyPath: m_LocalEulerAnglesHint.z
      value: 0
      objectReference: {fileID: 0}
    - target: {fileID: 6632745795944210091, guid: cb4f9e09de5234c788a68327a234ef9a, type: 3}
      propertyPath: m_LocalEulerAnglesHint.x
      value: 0
      objectReference: {fileID: 0}
    - target: {fileID: 6632745795944210091, guid: cb4f9e09de5234c788a68327a234ef9a, type: 3}
      propertyPath: m_LocalEulerAnglesHint.y
      value: 0
      objectReference: {fileID: 0}
    - target: {fileID: 6632745795944210091, guid: cb4f9e09de5234c788a68327a234ef9a, type: 3}
      propertyPath: m_LocalEulerAnglesHint.z
      value: 0
      objectReference: {fileID: 0}
    - target: {fileID: 6638367535957782156, guid: cb4f9e09de5234c788a68327a234ef9a, type: 3}
      propertyPath: m_LocalEulerAnglesHint.x
      value: 0
      objectReference: {fileID: 0}
    - target: {fileID: 6638367535957782156, guid: cb4f9e09de5234c788a68327a234ef9a, type: 3}
      propertyPath: m_LocalEulerAnglesHint.y
      value: 0
      objectReference: {fileID: 0}
    - target: {fileID: 6638367535957782156, guid: cb4f9e09de5234c788a68327a234ef9a, type: 3}
      propertyPath: m_LocalEulerAnglesHint.z
      value: 0
      objectReference: {fileID: 0}
    - target: {fileID: 6746461885082416485, guid: cb4f9e09de5234c788a68327a234ef9a, type: 3}
      propertyPath: m_LocalEulerAnglesHint.x
      value: 0
      objectReference: {fileID: 0}
    - target: {fileID: 6746461885082416485, guid: cb4f9e09de5234c788a68327a234ef9a, type: 3}
      propertyPath: m_LocalEulerAnglesHint.y
      value: 0
      objectReference: {fileID: 0}
    - target: {fileID: 6746461885082416485, guid: cb4f9e09de5234c788a68327a234ef9a, type: 3}
      propertyPath: m_LocalEulerAnglesHint.z
      value: 0
      objectReference: {fileID: 0}
    - target: {fileID: 6790153030547180017, guid: cb4f9e09de5234c788a68327a234ef9a, type: 3}
      propertyPath: m_LocalEulerAnglesHint.x
      value: 0
      objectReference: {fileID: 0}
    - target: {fileID: 6790153030547180017, guid: cb4f9e09de5234c788a68327a234ef9a, type: 3}
      propertyPath: m_LocalEulerAnglesHint.y
      value: -0
      objectReference: {fileID: 0}
    - target: {fileID: 6790153030547180017, guid: cb4f9e09de5234c788a68327a234ef9a, type: 3}
      propertyPath: m_LocalEulerAnglesHint.z
      value: -0
      objectReference: {fileID: 0}
    - target: {fileID: 7212296465133147604, guid: cb4f9e09de5234c788a68327a234ef9a, type: 3}
      propertyPath: m_LocalEulerAnglesHint.x
      value: 0
      objectReference: {fileID: 0}
    - target: {fileID: 7212296465133147604, guid: cb4f9e09de5234c788a68327a234ef9a, type: 3}
      propertyPath: m_LocalEulerAnglesHint.y
      value: 0
      objectReference: {fileID: 0}
    - target: {fileID: 7212296465133147604, guid: cb4f9e09de5234c788a68327a234ef9a, type: 3}
      propertyPath: m_LocalEulerAnglesHint.z
      value: 0
      objectReference: {fileID: 0}
    - target: {fileID: 7463811136527345483, guid: cb4f9e09de5234c788a68327a234ef9a, type: 3}
      propertyPath: m_LocalEulerAnglesHint.x
      value: -0
      objectReference: {fileID: 0}
    - target: {fileID: 7463811136527345483, guid: cb4f9e09de5234c788a68327a234ef9a, type: 3}
      propertyPath: m_LocalEulerAnglesHint.y
      value: 0
      objectReference: {fileID: 0}
    - target: {fileID: 7463811136527345483, guid: cb4f9e09de5234c788a68327a234ef9a, type: 3}
      propertyPath: m_LocalEulerAnglesHint.z
      value: 0
      objectReference: {fileID: 0}
    - target: {fileID: 7531589271200273849, guid: cb4f9e09de5234c788a68327a234ef9a, type: 3}
      propertyPath: m_LocalEulerAnglesHint.x
      value: 0
      objectReference: {fileID: 0}
    - target: {fileID: 7531589271200273849, guid: cb4f9e09de5234c788a68327a234ef9a, type: 3}
      propertyPath: m_LocalEulerAnglesHint.y
      value: 0
      objectReference: {fileID: 0}
    - target: {fileID: 7531589271200273849, guid: cb4f9e09de5234c788a68327a234ef9a, type: 3}
      propertyPath: m_LocalEulerAnglesHint.z
      value: 0
      objectReference: {fileID: 0}
    - target: {fileID: 7561148656352665749, guid: cb4f9e09de5234c788a68327a234ef9a, type: 3}
      propertyPath: m_LocalEulerAnglesHint.x
      value: 0
      objectReference: {fileID: 0}
    - target: {fileID: 7561148656352665749, guid: cb4f9e09de5234c788a68327a234ef9a, type: 3}
      propertyPath: m_LocalEulerAnglesHint.y
      value: 0
      objectReference: {fileID: 0}
    - target: {fileID: 7561148656352665749, guid: cb4f9e09de5234c788a68327a234ef9a, type: 3}
      propertyPath: m_LocalEulerAnglesHint.z
      value: 0
      objectReference: {fileID: 0}
    - target: {fileID: 7601584343046954068, guid: cb4f9e09de5234c788a68327a234ef9a, type: 3}
      propertyPath: m_LocalEulerAnglesHint.x
      value: 0
      objectReference: {fileID: 0}
    - target: {fileID: 7601584343046954068, guid: cb4f9e09de5234c788a68327a234ef9a, type: 3}
      propertyPath: m_LocalEulerAnglesHint.y
      value: 0
      objectReference: {fileID: 0}
    - target: {fileID: 7601584343046954068, guid: cb4f9e09de5234c788a68327a234ef9a, type: 3}
      propertyPath: m_LocalEulerAnglesHint.z
      value: 0
      objectReference: {fileID: 0}
    - target: {fileID: 7663575466805075214, guid: cb4f9e09de5234c788a68327a234ef9a, type: 3}
      propertyPath: m_LocalEulerAnglesHint.x
      value: -0
      objectReference: {fileID: 0}
    - target: {fileID: 7663575466805075214, guid: cb4f9e09de5234c788a68327a234ef9a, type: 3}
      propertyPath: m_LocalEulerAnglesHint.y
      value: 0
      objectReference: {fileID: 0}
    - target: {fileID: 7663575466805075214, guid: cb4f9e09de5234c788a68327a234ef9a, type: 3}
      propertyPath: m_LocalEulerAnglesHint.z
      value: 0
      objectReference: {fileID: 0}
    - target: {fileID: 7902379243684667539, guid: cb4f9e09de5234c788a68327a234ef9a, type: 3}
      propertyPath: m_LocalEulerAnglesHint.x
      value: -0
      objectReference: {fileID: 0}
    - target: {fileID: 7902379243684667539, guid: cb4f9e09de5234c788a68327a234ef9a, type: 3}
      propertyPath: m_LocalEulerAnglesHint.y
      value: 0
      objectReference: {fileID: 0}
    - target: {fileID: 7902379243684667539, guid: cb4f9e09de5234c788a68327a234ef9a, type: 3}
      propertyPath: m_LocalEulerAnglesHint.z
      value: 0
      objectReference: {fileID: 0}
    - target: {fileID: 8075724123211752179, guid: cb4f9e09de5234c788a68327a234ef9a, type: 3}
      propertyPath: m_LocalEulerAnglesHint.x
      value: 0
      objectReference: {fileID: 0}
    - target: {fileID: 8075724123211752179, guid: cb4f9e09de5234c788a68327a234ef9a, type: 3}
      propertyPath: m_LocalEulerAnglesHint.y
      value: -0
      objectReference: {fileID: 0}
    - target: {fileID: 8075724123211752179, guid: cb4f9e09de5234c788a68327a234ef9a, type: 3}
      propertyPath: m_LocalEulerAnglesHint.z
      value: 0
      objectReference: {fileID: 0}
    - target: {fileID: 8608388686642875298, guid: cb4f9e09de5234c788a68327a234ef9a, type: 3}
      propertyPath: m_LocalEulerAnglesHint.x
      value: -0
      objectReference: {fileID: 0}
    - target: {fileID: 8608388686642875298, guid: cb4f9e09de5234c788a68327a234ef9a, type: 3}
      propertyPath: m_LocalEulerAnglesHint.y
      value: 0
      objectReference: {fileID: 0}
    - target: {fileID: 8608388686642875298, guid: cb4f9e09de5234c788a68327a234ef9a, type: 3}
      propertyPath: m_LocalEulerAnglesHint.z
      value: 0
      objectReference: {fileID: 0}
    - target: {fileID: 8650269221565669055, guid: cb4f9e09de5234c788a68327a234ef9a, type: 3}
      propertyPath: m_LocalEulerAnglesHint.x
      value: 0
      objectReference: {fileID: 0}
    - target: {fileID: 8650269221565669055, guid: cb4f9e09de5234c788a68327a234ef9a, type: 3}
      propertyPath: m_LocalEulerAnglesHint.y
      value: 0
      objectReference: {fileID: 0}
    - target: {fileID: 8650269221565669055, guid: cb4f9e09de5234c788a68327a234ef9a, type: 3}
      propertyPath: m_LocalEulerAnglesHint.z
      value: 0
      objectReference: {fileID: 0}
    - target: {fileID: 9138043485388574751, guid: cb4f9e09de5234c788a68327a234ef9a, type: 3}
      propertyPath: m_LocalEulerAnglesHint.x
      value: 0
      objectReference: {fileID: 0}
    - target: {fileID: 9138043485388574751, guid: cb4f9e09de5234c788a68327a234ef9a, type: 3}
      propertyPath: m_LocalEulerAnglesHint.y
      value: 0
      objectReference: {fileID: 0}
    - target: {fileID: 9138043485388574751, guid: cb4f9e09de5234c788a68327a234ef9a, type: 3}
      propertyPath: m_LocalEulerAnglesHint.z
      value: 0
      objectReference: {fileID: 0}
    - target: {fileID: 9166346350026587631, guid: cb4f9e09de5234c788a68327a234ef9a, type: 3}
      propertyPath: m_LocalEulerAnglesHint.x
      value: -0
      objectReference: {fileID: 0}
    - target: {fileID: 9166346350026587631, guid: cb4f9e09de5234c788a68327a234ef9a, type: 3}
      propertyPath: m_LocalEulerAnglesHint.y
      value: 0
      objectReference: {fileID: 0}
    - target: {fileID: 9166346350026587631, guid: cb4f9e09de5234c788a68327a234ef9a, type: 3}
      propertyPath: m_LocalEulerAnglesHint.z
      value: 0
      objectReference: {fileID: 0}
    - target: {fileID: 9178548663399498381, guid: cb4f9e09de5234c788a68327a234ef9a, type: 3}
      propertyPath: m_LocalEulerAnglesHint.x
      value: -0
      objectReference: {fileID: 0}
    - target: {fileID: 9178548663399498381, guid: cb4f9e09de5234c788a68327a234ef9a, type: 3}
      propertyPath: m_LocalEulerAnglesHint.y
      value: 0
      objectReference: {fileID: 0}
    - target: {fileID: 9178548663399498381, guid: cb4f9e09de5234c788a68327a234ef9a, type: 3}
      propertyPath: m_LocalEulerAnglesHint.z
      value: 0
      objectReference: {fileID: 0}
    m_RemovedComponents: []
  m_SourcePrefab: {fileID: 100100000, guid: cb4f9e09de5234c788a68327a234ef9a, type: 3}
--- !u!4 &8339920190983396730 stripped
Transform:
  m_CorrespondingSourceObject: {fileID: -8679921383154817045, guid: cb4f9e09de5234c788a68327a234ef9a, type: 3}
  m_PrefabInstance: {fileID: 8374408629411986065}
  m_PrefabAsset: {fileID: 0}
